### Universal fuel transfer system by Tomaskom ###

#Script for automated fuel transfer from fuel tanks to Engine feed tank based on fuel tank priority. Gathers fuel from fuel tanks within a priority group that have most fuel first - results in equalized fuel levels within the group. Also manages enabling all tanks when refueling. 

#Fuel tanks priority: fist empty droptanks (4,3), then wingtip fixed tanks (2) and fuselage tanks are last (1). 

var fuel_node = props.globals.getNode("/consumables/fuel");

var engFeedN = 10; #number of tank which serves as engine feed

var interval = 0.05; #transfer cycle interval
var cycleAmmount = 0.45; #total ammount to be transferred in one cycle

#class representing a fuel tank
var fuelTank = {
	#constructor
	new: func(tankN, prio = 0) {
		var m = { parents: [fuelTank] };
		m.tankNum = tankN;
		m.priority = prio;
		m.dump = 0;
		return m;
	},
	#get fuel tank emptying priority
	getPriority: func {
		return me.priority;
	},
	#get fuel level
	getLevel: func {
		return getprop("/consumables/fuel/tank["~me.tankNum~"]/level-gal_us");
	},
	#get fuel capacity
	getCapacity: func {
		return getprop("/consumables/fuel/tank["~me.tankNum~"]/capacity-gal_us");
	},
	#get requested ammount of fuel or all remaining fuel if less than requested
	takeFuel: func(fuel_req) {
		var fuel_level = getprop("/consumables/fuel/tank["~me.tankNum~"]/level-gal_us");
		if(fuel_level<fuel_req) {
			setprop("/consumables/fuel/tank["~me.tankNum~"]/level-gal_us", 0);
			return fuel_level;
		}
		else {
			setprop("/consumables/fuel/tank["~me.tankNum~"]/level-gal_us", fuel_level-fuel_req);
			return fuel_req;
		}
	},
	#pump requested ammount of fuel in this tank, returns overflow if any
	pushFuel: func(fuel_push) {
		var fuel_level = getprop("/consumables/fuel/tank["~me.tankNum~"]/level-gal_us");
		var fuel_capacity = getprop("/consumables/fuel/tank["~me.tankNum~"]/capacity-gal_us");
		if((fuel_level+fuel_push)>fuel_capacity) {
			setprop("/consumables/fuel/tank["~me.tankNum~"]/level-gal_us", fuel_capacity);
			return fuel_level+fuel_push-fuel_capacity;
		}
		else {
			setprop("/consumables/fuel/tank["~me.tankNum~"]/level-gal_us", fuel_level+fuel_push);
			return 0;
		}
	},
	#get enabled status
	getEnable: func {
		return getprop("/consumables/fuel/tank["~me.tankNum~"]/selected");
	},
	#set enabled status
	setEnable: func(enable) {
		setprop("/consumables/fuel/tank["~me.tankNum~"]/selected", enable);
	},
	#set ammount of fuel (gal) to be dumped per minute - works only approximately, the real ammount is lower
	fuelDump: func(dumpAmmount) {
		me.dump = dumpAmmount * interval / 60;
	},
	#perform dump, to be called during main loop
	performDump: func {
		if(me.dump > 0) {
			me.takeFuel(me.dump);
		}
	},
};

var engineFeedTank = fuelTank.new(engFeedN, 0); 

#keep Engine feed tank enabled, TODO: change when engine startup procedures are implemented
engFeedEnable = func {
	if(engineFeedTank.getEnable() == 0 and engineFeedTank.getLevel() > 0) {
		engineFeedTank.setEnable(1);
	}
	else {
		if(engineFeedTank.getEnable() == 1 and engineFeedTank.getLevel() == 0) {
			engineFeedTank.setEnable(0);
		}
	}
}
setlistener("/consumables/fuel/tank["~engFeedN~"]/selected", engFeedEnable);

var tanks = [
	#fuselage tanks
	fuelTank.new(0, 1),
	fuelTank.new(1, 1),
	fuelTank.new(2, 1),
	# wing tanks
	fuelTank.new(3, 2),
	fuelTank.new(4, 2),
	fuelTank.new(5, 2),
	fuelTank.new(6, 2),
	#droptanks
	fuelTank.new(7, 3),
	fuelTank.new(8, 3),
    fuelTank.new(9, 3),
];

#cycle:
#check how much fuel is missing in the Engine feed tank
#check which highest priority still has fuel
#get remaining fuel levels of those tanks
#request balanced ammount of fuel from each tank (to keep levels equal)
#store the fuel to the Engine feed tank
var fuelTransfer = func {
	#check how much fuel is missing in the Engine feed tank
	var missingFuel = engineFeedTank.getCapacity() - engineFeedTank.getLevel();
		
	var fuelToGet = (cycleAmmount < missingFuel ? cycleAmmount : missingFuel);
	
	#check which highest priority still has fuel (and perform dump if tank is set to do it)
	var maxNonemptyPrio = 0;
	forindex(var i; tanks) {
		tanks[i].performDump();
		if( tanks[i].getLevel() > 0 and tanks[i].getPriority() > maxNonemptyPrio ) {
			maxNonemptyPrio = tanks[i].getPriority();
		}
	}
	
	#create array of hashes, each hash contains index (from tanks[]), fuel level and fuel to be requested
	var activeTanks = [];
	forindex(var i; tanks) {
		if( tanks[i].getPriority() == maxNonemptyPrio ) {
			append(activeTanks, {index:i, fuelLevel:tanks[i].getLevel(), reqFuel:0});
		}
	}
	
	#skip loop if no tanks (eg. when not yet initialized on startup)
	if(size(activeTanks) == 0) {
		settimer(fuelTransfer, interval);
		return;
	}
	
	#get previous array sorted - descending order
	var sortedTanks = sort(activeTanks, 
		func(h1, h2){return h2.fuelLevel-h1.fuelLevel;} );
	
	#debug check for correct sorting
	#forindex(var i; sortedTanks) {
	#	print("Sorted tank " ~ sortedTanks[i].index ~ ", fuel level: " ~ sortedTanks[i].fuelLevel);
	#}
	
	var numTanks = size(sortedTanks);
	
	var gatheredFuel = 0;
	var cont = 1; #continue looping?
	var stopIndex = -1; #index where looping stopped
	for(var i = 0; cont; i+=1) {
		if( (i+1) < numTanks and (gatheredFuel + (sortedTanks[i].fuelLevel - sortedTanks[i+1].fuelLevel) * (i+1)) < fuelToGet ) {
			gatheredFuel += (sortedTanks[i].fuelLevel - sortedTanks[i+1].fuelLevel) * (i+1);
		}
		else {
			stopIndex = i;
			cont = 0;
		}
	}
	
	var toGather = fuelToGet - gatheredFuel;
	var leastReducedLevel = sortedTanks[stopIndex].fuelLevel; #level of tank with least fuel which still gets used
	
	#set required fuel
	for(var i = 0; i < stopIndex; i+=1) {
		sortedTanks[i].reqFuel += sortedTanks[i].fuelLevel - leastReducedLevel;
	}
	
	for(var i = 0; i <= stopIndex; i+=1) {
		sortedTanks[i].reqFuel += toGather/(stopIndex+1);
	}
	
	#debug check for correct reqFuel
	#forindex(var i; sortedTanks) {
	#	print("Tank " ~ sortedTanks[i].index ~ ", fuel level: " ~ sortedTanks[i].fuelLevel);
	#	print("Requesting fuel: " ~ sortedTanks[i].reqFuel);
	#}
	
	#execute fuel transfer
	var transferedFuel = 0;
	forindex(var i; sortedTanks) {
		transferedFuel += tanks[sortedTanks[i].index].takeFuel(sortedTanks[i].reqFuel);
	}
	engineFeedTank.pushFuel(transferedFuel);
	
	settimer(fuelTransfer, interval);
}
fuelTransfer();


#Air-to-Air refueling - all tanks temporarily enabled when receiving fuel and disabled otherwise (except for Engine feed tank)
#the "/systems/refuel/contact" property is probably repeatedly written to by the refuel script even if nothing changes - thanks to this, the listener is regularly called and I don't need to set up any other check to keep them in desired state
aarHandle = func {
	if(getprop("/systems/refuel/contact")) {
		foreach (var tank; tanks) {
			tank.setEnable(1);
		}
	}
	else {
		foreach (var tank; tanks) {
			tank.setEnable(0);
		}
	}
}
setlistener("/systems/refuel/contact", aarHandle);


print("Fuel system initialized");

